<?xml version="1.0" encoding="UTF-8" standalone="no"?>
<!-- Created with Inkscape (http://www.inkscape.org/) -->

<svg
   xmlns:dc="http://purl.org/dc/elements/1.1/"
   xmlns:cc="http://creativecommons.org/ns#"
   xmlns:rdf="http://www.w3.org/1999/02/22-rdf-syntax-ns#"
   xmlns:svg="http://www.w3.org/2000/svg"
   xmlns="http://www.w3.org/2000/svg"
   version="1.1"
   width="113.92484"
   height="113.92306"
   id="svg2">
  <metadata
     id="metadata20">
    <rdf:RDF>
      <cc:Work
         rdf:about="">
        <dc:format>image/svg+xml</dc:format>
        <dc:type
           rdf:resource="http://purl.org/dc/dcmitype/StillImage" />
        <dc:title></dc:title>
      </cc:Work>
    </rdf:RDF>
  </metadata>
  <defs
     id="defs18" />
  <path
     d="M 111.77627,51.887313 62.034015,2.1485625 c -2.86225,-2.86475 -7.50825,-2.86475 -10.3745,0 L 41.33089,12.478063 54.433015,25.580688 c 3.045875,-1.028375 6.537125,-0.338875 8.963875,2.088375 2.439375,2.442375 3.124,5.963375 2.06975,9.0195 l 12.628,12.6275 c 3.055125,-1.05275 6.58,-0.372625 9.0195,2.07125 3.410625,3.409625 3.410625,8.9345 0,12.34525 -3.411125,3.411625 -8.936,3.411625 -12.348625,0 -2.5645,-2.5665 -3.19875,-6.3345 -1.899875,-9.49425 l -11.776875,-11.77725 -0.001,30.991125 c 0.8315,0.411625 1.61625,0.961 2.309125,1.650875 3.409625,3.40925 3.409625,8.933125 0,12.34775 -3.410625,3.409125 -8.938,3.409125 -12.34525,0 -3.410125,-3.414625 -3.410125,-8.9385 0,-12.34775 0.84275,-0.84125 1.817875,-1.478 2.858375,-1.904751 l 0,-31.27875 c -1.0405,-0.425374 -2.014125,-1.057624 -2.858375,-1.904874 -2.583,-2.581 -3.205125,-6.372 -1.880375,-9.543875 l -12.9155,-12.918 -34.106475,34.1045 c -2.86572,2.867125 -2.86572,7.513125 0,10.378375 L 51.891015,111.7745 c 2.86375,2.86475 7.50825,2.86475 10.376,0 L 111.77627,62.266188 c 2.86475,-2.86625 2.86475,-7.513625 0,-10.378875"
     id="path14"
     style="fill:#f03c2e;fill-opacity:1;fill-rule:nonzero;stroke:none" />
</svg>
